{
  "enabled": true,
  "in_progress": false, 
  "notify": {
    "title": "App Maintenance",
    "message": "The app will be unavailable and is scheduled for maintenance at {time} for {duraction}"
  },
  "busy": {
    "title": "App Maintenance",
    "message": "We are currently improving your app experience. Please check in later..."
  }
}